{
    "id": "pf2e-color-effects",
    "title": "PF2E Token Markers",
    "description": "Adds Macros that let you track various things as effects on tokens.",
    "version": "2.3.5",
    "authors": [
      {
      "name": "InfamousSky"
      }
    ],
    "compatibility": {
      "minimum": "10",
      "verified": "11",
      "maximum": "12"
    },
    "relationships": {
      "systems": [{
        "id": "pf2e",
        "type": "system"
      }]
    },
    "media": [{
          "type": "setup",
          "caption": "marks tokens",
          "thumbnail": "/modules/pf2e-color-effects/assets/thumb.webp"
    }],
    "packs": [
      {
          "name": "pf2e-color-effects",
          "label": "PF2E Token Marker Effects",
          "path": "./packs/color-effects.db",
          "banner": "/modules/pf2e-color-effects/assets/fuckbounty-banner.webp",
          "system": "pf2e",
          "type": "Item"
      },
      {
          "name": "pf2e-color-macros",
          "label": "PF2E Token Marker Macros",
          "path": "./packs/color-effects-macros.db",
          "banner": "/modules/pf2e-color-effects/assets/fuckbounty-banner.webp",
          "type": "Macro"
      },
      {
          "name": "pf2e-color-journals",
          "label": "PF2E Token Marker Journals",
          "path": "./packs/color-effects-journals.db",
          "banner": "/modules/pf2e-color-effects/assets/fuckbounty-banner.webp",
          "type": "JournalEntry"
      }
    ],
    "url": "https://gitlab.com/InfamousSky/pf2e-color-effects",
    "manifest": "https://gitlab.com/InfamousSky/pf2e-color-effects/-/raw/main/pf2e-color-effects/module.json",
    "download": "https://gitlab.com/InfamousSky/pf2e-color-effects/-/archive/main/pf2e-color-effects-main.zip"
  }
